﻿# Anbennar - added some gerudian ref

### Character interior background
character_view_bg = {

	######################################

	# Dead
	texture = {
		reference = "event_scenes/temple.dds"
		trigger = {
			is_alive = no
		}
	}

	environment = {
		reference = "environment_event_temple"

		trigger = {
			is_alive = no
		}
	}

	##########################################

	# Wandering drunk/reveler
	texture = {
		reference = "character_view/tavern.dds"

		trigger = {
			OR = {
				has_trait = drunkard
				has_trait = lifestyle_reveler
			}
			NOR = {
				exists = liege
				exists = host
			}
		}
	}

	environment = {
		reference = "environment_cw_tavern"

		trigger = {
			OR = {
				has_trait = drunkard
				has_trait = lifestyle_reveler
			}
			NOR = {
				exists = liege
				exists = host
			}
			is_character_window_main_character = yes
		}
	}

	environment = {
		reference = "environment_cw_tavern_spouse"

		trigger = {
			OR = {
				AND = {
					exists = primary_spouse
					primary_spouse = {
						OR = {
							has_trait = drunkard
							has_trait = lifestyle_reveler
						}
						NOR = {
							exists = liege
							exists = host
						}
					}
				}
				AND = {
					exists = betrothed
					betrothed = {
						NOR = {
							OR = {
								has_trait = drunkard
								has_trait = lifestyle_reveler
							}
							exists = liege
							exists = host
						}
					}
				}
			}
			is_character_window_main_character = no
		}
	}
	
	# Wandering coastal
	texture = {
		reference = "character_view/docks.dds"

		trigger = {
			exists = location
			location = {
				is_coastal = yes
			}
			NOR = {
				exists = liege
				exists = host
			}
		}
	}

	environment = {
		reference = "environment_event_docks"

		trigger = {
			exists = location
			location = {
				is_coastal = yes
			}
			NOR = {
				exists = liege
				exists = host
			}
			is_character_window_main_character = yes
		}
	}

	environment = {
		reference = "environment_event_docks"

		trigger = {
			OR = {
				AND = {
					exists = primary_spouse
					primary_spouse = {
						exists = location
						location = {
							is_coastal = yes
						}
						NOR = {
							exists = liege
							exists = host
						}
					}
				}
				AND = {
					exists = betrothed
					betrothed = {
						exists = location
						location = {
							is_coastal = yes
						}
						NOR = {
							exists = liege
							exists = host
						}
					}
				}
			}
			is_character_window_main_character = no
		}
	}
	
	# Wandering europe
	texture = {
		reference = "character_view/crossroads_inn.dds"

		trigger = {
			exists = location
			location = {
				geographical_region = world_europe
			}
			NOR = {
				exists = liege
				exists = host
			}
		}
	}

	environment = {
		reference = "environment_event_bp1_crossroads_inn"

		trigger = {
			exists = location
			location = {
				geographical_region = world_europe
			}
			NOR = {
				exists = liege
				exists = host
			}
			is_character_window_main_character = yes
		}
	}

	environment = {
		reference = "environment_event_bp1_crossroads_inn"

		trigger = {
			OR = {
				AND = {
					exists = primary_spouse
					primary_spouse = {
						exists = location
						location = {
							geographical_region = world_europe
						}
						NOR = {
							exists = liege
							exists = host
						}
					}
				}
				AND = {
					exists = betrothed
					betrothed = {
						exists = location
						location = {
							geographical_region = world_europe
						}
						NOR = {
							exists = liege
							exists = host
						}
					}
				}
			}
			is_character_window_main_character = no
		}
	}
	
	# Wandering mena
	texture = {
		reference = "character_view/courtyard_mena.dds"

		trigger = {
			exists = location
			location = {
				OR = {
					geographical_region = world_middle_east
					geographical_region = world_middle_east_persia
				}
			}
			NOR = {
				exists = liege
				exists = host
			}
		}
	}

	environment = {
		reference = "environment_event_bp1_courtyard_mena"

		trigger = {
			exists = location
			location = {
				OR = {
					geographical_region = world_middle_east
					geographical_region = world_middle_east_persia
				}
			}
			NOR = {
				exists = liege
				exists = host
			}
			is_character_window_main_character = yes
		}
	}

	environment = {
		reference = "environment_event_bp1_courtyard_mena"

		trigger = {
			OR = {
				AND = {
					exists = primary_spouse
					primary_spouse = {
						exists = location
						location = {
							OR = {
								geographical_region = world_middle_east
								geographical_region = world_middle_east_persia
							}
						}
						NOR = {
							exists = liege
							exists = host
						}
					}
				}
				AND = {
					exists = betrothed
					betrothed = {
						exists = location
						location = {
							OR = {
								geographical_region = world_middle_east
								geographical_region = world_middle_east_persia
							}
						}
						NOR = {
							exists = liege
							exists = host
						}
					}
				}
			}
			is_character_window_main_character = no
		}
	}
	
	# Wandering india
	texture = {
		reference = "character_view/courtyard_indian.dds"

		trigger = {
			exists = location
			location = {
				geographical_region = world_india
			}
			NOR = {
				exists = liege
				exists = host
			}
		}
	}

	environment = {
		reference = "environment_event_bp1_courtyard_indian"

		trigger = {
			exists = location
			location = {
				geographical_region = world_india
			}
			NOR = {
				exists = liege
				exists = host
			}
			is_character_window_main_character = yes
		}
	}

	environment = {
		reference = "environment_event_bp1_courtyard_indian"

		trigger = {
			OR = {
				AND = {
					exists = primary_spouse
					primary_spouse = {
						exists = location
						location = {
							geographical_region = world_india
						}
						NOR = {
							exists = liege
							exists = host
						}
					}
				}
				AND = {
					exists = betrothed
					betrothed = {
						exists = location
						location = {
							geographical_region = world_india
						}
						NOR = {
							exists = liege
							exists = host
						}
					}
				}
			}
			is_character_window_main_character = no
		}
	}
	
	# Wandering fallback
	texture = {
		reference = "character_view/bonfire.dds"

		trigger = {
			NOR = {
				exists = liege
				exists = host
			}
		}
	}

	environment = {
		reference = "environment_event_bp1_bonfire"

		trigger = {
			NOR = {
				exists = liege
				exists = host
			}
			is_character_window_main_character = yes
		}
	}

	environment = {
		reference = "environment_event_bp1_bonfire"

		trigger = {
			OR = {
				AND = {
					exists = primary_spouse
					primary_spouse = {
						NOR = {
							exists = liege
							exists = host
						}
					}
				}
				AND = {
					exists = betrothed
					betrothed = {
						NOR = {
							exists = liege
							exists = host
						}
					}
				}
			}
			is_character_window_main_character = no
		}
	}
	
	##########################################
	
	# 'Feudal'/High-tier Norse, or non-Tribals in Scandinavia
	texture = { # FP1 Norse
		reference = "character_view/fp1_throneroom_nontribal.dds"

		trigger = {
			has_fp1_dlc_trigger = yes
			OR = {
				AND = {
					is_ruler = no
					OR = {
						AND = {
							exists = liege
							liege = {
								OR = {
									NOT = {
										has_government = tribal_government
									}
									primary_title.tier >= tier_kingdom
								}
								OR = {
									# Anbennar
									culture = { has_cultural_pillar = heritage_gerudian }
									# culture = culture:norse
									# religion = religion:germanic_religion
									has_graphical_scandinavia_region_trigger = yes
								}
							}
						}
						AND = {
							exists = host
							host = {
								OR = {
									NOT = {
										has_government = tribal_government
									}
									primary_title.tier >= tier_kingdom
								}
								OR = {
									# Anbennar
									culture = { has_cultural_pillar = heritage_gerudian }
									# culture = culture:norse
									# religion = religion:germanic_religion
									has_graphical_scandinavia_region_trigger = yes
								}
							}
						}
					}
				}
				AND = {
					is_ruler = yes
					OR = {
						NOT = {
							has_government = tribal_government
						}
						primary_title.tier >= tier_kingdom
					}
					OR = {
						# Anbennar
						culture = { has_cultural_pillar = heritage_gerudian }
						# culture = culture:norse
						# religion = religion:germanic_religion
						has_graphical_scandinavia_region_trigger = yes
					}
				}
			}
		}
	}

	environment = {
		reference = "environment_fp1_cw_nontribal_main"

		trigger = {
			has_fp1_dlc_trigger = yes
			OR = {
				AND = {
					is_ruler = no
					OR = {
						AND = {
							exists = liege
							liege = {
								OR = {
									NOT = {
										has_government = tribal_government
									}
									primary_title.tier >= tier_kingdom
								}
								OR = {
									# Anbennar
									culture = { has_cultural_pillar = heritage_gerudian }
									# culture = culture:norse
									# religion = religion:germanic_religion
									has_graphical_scandinavia_region_trigger = yes
								}
							}
						}
						AND = {
							exists = host
							host = {
								OR = {
									NOT = {
										has_government = tribal_government
									}
									primary_title.tier >= tier_kingdom
								}
								OR = {
									# Anbennar
									culture = { has_cultural_pillar = heritage_gerudian }
									# culture = culture:norse
									# religion = religion:germanic_religion
									has_graphical_scandinavia_region_trigger = yes
								}
							}
						}
					}
				}
				AND = {
					is_ruler = yes
					OR = {
						NOT = {
							has_government = tribal_government
						}
						primary_title.tier >= tier_kingdom
					}
					OR = {
						# Anbennar
						culture = { has_cultural_pillar = heritage_gerudian }
						# culture = culture:norse
						# religion = religion:germanic_religion
						has_graphical_scandinavia_region_trigger = yes
					}
				}
			}
			is_character_window_main_character = yes
		}
	}

	environment = {
		reference = "environment_fp1_cw_nontribal_spouse"

		trigger = {
			OR = {
				AND = {
					exists = primary_spouse
					primary_spouse = {
						has_fp1_dlc_trigger = yes
						OR = {
							NOT = {
								has_government = tribal_government
							}
							primary_title.tier >= tier_kingdom
						}
						OR = {
							# Anbennar
							culture = { has_cultural_pillar = heritage_gerudian }
							# culture = culture:norse
							# religion = religion:germanic_religion
							has_graphical_scandinavia_region_trigger = yes
						}
					}
				}
				AND = {
					exists = betrothed
					betrothed = {
						has_fp1_dlc_trigger = yes
						OR = {
							NOT = {
								has_government = tribal_government
							}
							primary_title.tier >= tier_kingdom
						}
						OR = {
							# Anbennar
							culture = { has_cultural_pillar = heritage_gerudian }
							# culture = culture:norse
							# religion = religion:germanic_religion
							has_graphical_scandinavia_region_trigger = yes
						}
					}
				}
			}
			is_character_window_main_character = no
		}
	}
	
	##########################################
	
	# Tribal Norse
	texture = { # FP1 Norse
		reference = "character_view/fp1_throneroom_tribal.dds"

		trigger = {
			has_fp1_dlc_trigger = yes
			OR = {
				AND = {
					is_ruler = no
					OR = {
						AND = {
							exists = liege
							liege = {
								has_government = tribal_government
								OR = {
									# Anbennar
									culture = { has_cultural_pillar = heritage_gerudian }
									# culture = culture:norse
									# religion = religion:germanic_religion
									has_graphical_scandinavia_region_trigger = yes
								}
							}
						}
						AND = {
							exists = host
							host = {
								has_government = tribal_government
								OR = {
									# Anbennar
									culture = { has_cultural_pillar = heritage_gerudian }
									# culture = culture:norse
									# religion = religion:germanic_religion
									has_graphical_scandinavia_region_trigger = yes
								}
							}
						}
					}
				}
				AND = {
					is_ruler = yes
					has_government = tribal_government
					OR = {
						# Anbennar
						culture = { has_cultural_pillar = heritage_gerudian }
						# culture = culture:norse
						# religion = religion:germanic_religion
					}
				}
			}
		}
	}

	environment = {
		reference = "environment_fp1_cw_tribal_main"

		trigger = {
			has_fp1_dlc_trigger = yes
			OR = {
				AND = {
					is_ruler = no
					OR = {
						AND = {
							exists = liege
							liege = {
								has_government = tribal_government
								OR = {
									# Anbennar
									culture = { has_cultural_pillar = heritage_gerudian }
									# culture = culture:norse
									# religion = religion:germanic_religion
									has_graphical_scandinavia_region_trigger = yes
								}
							}
						}
						AND = {
							exists = host
							host = {
								has_government = tribal_government
								OR = {
									# Anbennar
									culture = { has_cultural_pillar = heritage_gerudian }
									# culture = culture:norse
									# religion = religion:germanic_religion
									has_graphical_scandinavia_region_trigger = yes
								}
							}
						}
					}
				}
				AND = {
					is_ruler = yes
					has_government = tribal_government
					OR = {
						# Anbennar
						culture = { has_cultural_pillar = heritage_gerudian }
						# culture = culture:norse
						# religion = religion:germanic_religion
					}
				}
			}
			is_character_window_main_character = yes
		}
	}

	environment = {
		reference = "environment_fp1_cw_tribal_spouse"

		trigger = {
			OR = {
				AND = {
					exists = primary_spouse
					primary_spouse = {
						has_government = tribal_government
						has_fp1_dlc_trigger = yes
						OR = {
							# Anbennar
							culture = { has_cultural_pillar = heritage_gerudian }
							# culture = culture:norse
							# religion = religion:germanic_religion
						}
					}
				}
				AND = {
					exists = betrothed
					betrothed = {
						has_government = tribal_government
						has_fp1_dlc_trigger = yes
						OR = {
							# Anbennar
							culture = { has_cultural_pillar = heritage_gerudian }
							# culture = culture:norse
							# religion = religion:germanic_religion
						}
					}
				}
			}
			is_character_window_main_character = no
		}
	}

	##########################################

	# Tribal
	texture = {
		reference = "character_view/throneroom_tribal.dds"

		trigger = {
			has_government = tribal_government
		}
	}

	environment = {
		reference = "environment_cw_tribal_main"

		trigger = {
			has_government = tribal_government
			is_character_window_main_character = yes
		}
	}

	environment = {
		reference = "environment_cw_tribal_spouse"

		trigger = {
			OR = {
				AND = {
					exists = primary_spouse
					primary_spouse = {
						has_government = tribal_government
					}
				}
				AND = {
					exists = betrothed
					betrothed = {
						has_government = tribal_government
					}
				}
			}
			is_character_window_main_character = no
		}
	}

	##########################################

	# Iberian, high rank
	texture = {
		reference = "character_view/fp2_throneroom_iberian.dds"

		trigger = {
			has_fp2_dlc_trigger = yes
			exists = primary_title
			primary_title.tier >= tier_empire
			has_graphical_iberia_region_trigger = yes
		}
	}

	environment = {
		reference = "environment_cw_fp2_iberian_throneroom_main"

		trigger = {
			exists = primary_title
			primary_title.tier >= tier_empire
			has_graphical_iberia_region_trigger = yes
			is_character_window_main_character = yes
		}
	}

	environment = {
		reference = "environment_cw_fp2_iberian_throneroom_spouse"

		trigger = {
			OR = {
				AND = {
					exists = primary_spouse
					primary_spouse = {
						exists = primary_title
						primary_title.tier >= tier_empire
						has_graphical_iberia_region_trigger = yes
					}
				}
				AND = {
					exists = betrothed
					betrothed = {
						exists = primary_title
						primary_title.tier >= tier_empire
						has_graphical_iberia_region_trigger = yes
					}
				}
			}
			is_character_window_main_character = no
		}
	}

	##########################################
	# Iberian, regular
	texture = {
		reference = "character_view/fp2_iberian.dds"

		trigger = {
			has_fp2_dlc_trigger = yes
			has_graphical_iberia_region_trigger = yes		
		}
	}

	environment = {
		reference = "environment_cw_fp2_iberian"

		trigger = {
			has_graphical_iberia_region_trigger = yes
			is_character_window_main_character = yes		
		}
	}

	environment = {
		reference = "environment_cw_fp2_iberian_spouse"

		trigger = {
			OR = {
				AND = {
					exists = primary_spouse
					primary_spouse = { has_graphical_iberia_region_trigger = yes }
				}
				AND = {
					exists = betrothed
					betrothed = { has_graphical_iberia_region_trigger = yes	}
				}
			}
			is_character_window_main_character = no
		}
	}

	############################################

	# Mediterranean, high rank
	texture = {
		reference = "character_view/throneroom_mediterranean.dds"

		trigger = {
			exists = primary_title
			primary_title.tier >= tier_empire
			has_graphical_mediterranean_region_trigger = yes
		}
	}

	environment = {
		reference = "environment_cw_mediterranean_throneroom_main"

		trigger = {
			exists = primary_title
			primary_title.tier >= tier_empire
			has_graphical_mediterranean_region_trigger = yes
			is_character_window_main_character = yes
		}
	}

	environment = {
		reference = "environment_cw_mediterranean_throneroom_spouse"

		trigger = {
			OR = {
				AND = {
					exists = primary_spouse
					primary_spouse = {
						exists = primary_title
						primary_title.tier >= tier_empire
						has_graphical_mediterranean_region_trigger = yes
					}
				}
				AND = {
					exists = betrothed
					betrothed = {
						exists = primary_title
						primary_title.tier >= tier_empire
						has_graphical_mediterranean_region_trigger = yes
					}
				}
			}
			is_character_window_main_character = no
		}
	}

	##########################################
	# Mediterranean, regular
	texture = {
		reference = "character_view/mediterranean.dds"

		trigger = {
			has_graphical_mediterranean_region_trigger = yes
		}
	}

	environment = {
		reference = "environment_cw_mediterranean_main"

		trigger = {
			has_graphical_mediterranean_region_trigger = yes
			is_character_window_main_character = yes
		}
	}

	environment = {
		reference = "environment_cw_mediterranean_spouse"

		trigger = {
			OR = {
				AND = {
					exists = primary_spouse
					primary_spouse = {
						has_graphical_mediterranean_region_trigger = yes
					}
				}
				AND = {
					exists = betrothed
					betrothed = {
						has_graphical_mediterranean_region_trigger = yes
					}
				}
			}
			is_character_window_main_character = no
		}
	}

	##########################################

	# Eastern, high rank
	texture = {
		reference = "character_view/throneroom_east.dds"

		trigger = {
			exists = primary_title
			primary_title.tier >= tier_empire
			has_graphical_mena_region_trigger = yes
		}
	}

	environment = {
		reference = "environment_cw_east_throneroom_main"

		trigger = {
			exists = primary_title
			primary_title.tier >= tier_empire
			is_character_window_main_character = yes
			has_graphical_mena_region_trigger = yes
		}
	}

	environment = {
		reference = "environment_cw_east_throneroom_spouse"

		trigger = {
			OR = {
				AND = {
					exists = primary_spouse
					primary_spouse = {
						exists = primary_title
						primary_title.tier >= tier_empire
						has_graphical_mena_region_trigger = yes
					}
				}
				AND = {
					exists = betrothed
					betrothed = {
						exists = primary_title
						primary_title.tier >= tier_empire
						has_graphical_mena_region_trigger = yes
					}
				}
			}
			is_character_window_main_character = no
		}
	}

	##########################################

	# Eastern, regular
	texture = {
		reference = "character_view/mena.dds"

		trigger = {
			has_graphical_mena_region_trigger = yes
		}
	}

	environment = {
		reference = "environment_cw_east_main"

		trigger = {
			is_character_window_main_character = yes
			has_graphical_mena_region_trigger = yes
		}
	}

	environment = {
		reference = "environment_cw_east_spouse"

		trigger = {
			OR = {
				AND = {
					exists = primary_spouse
					primary_spouse = {
						has_graphical_mena_region_trigger = yes
					}
				}
				AND = {
					exists = betrothed
					betrothed = {
						has_graphical_mena_region_trigger = yes
					}
				}
			}
			is_character_window_main_character = no
		}
	}

	##########################################

	# India, high rank
	texture = {
		reference = "character_view/throneroom_india.dds"

		trigger = {
			exists = primary_title
			primary_title.tier >= tier_empire
			has_graphical_india_region_trigger = yes
		}
	}

	environment = {
		reference = "environment_cw_india_throneroom_main"

		trigger = {
			exists = primary_title
			primary_title.tier >= tier_empire
			has_graphical_india_region_trigger = yes
			is_character_window_main_character = yes
		}
	}

	environment = {
		reference = "environment_cw_india_throneroom_spouse"

		trigger = {
			OR = {
				AND = {
					exists = primary_spouse
					primary_spouse = {
						exists = primary_title
						primary_title.tier >= tier_empire
						has_graphical_india_region_trigger = yes
					}
				}
				AND = {
					exists = betrothed
					betrothed = {
						exists = primary_title
						primary_title.tier >= tier_empire
						has_graphical_india_region_trigger = yes
					}
				}
			}
			is_character_window_main_character = no
		}
	}

	##########################################

	# India, regular
	texture = {
		reference = "character_view/india.dds"

		trigger = {
			has_graphical_india_region_trigger = yes
		}
	}

	environment = {
		reference = "environment_cw_india_main"

		trigger = {
			is_character_window_main_character = yes
			has_graphical_india_region_trigger = yes
		}
	}

	environment = {
		reference = "environment_cw_india_spouse"

		trigger = {
			OR = {
				AND = {
					exists = primary_spouse
					primary_spouse = {
						has_graphical_india_region_trigger = yes
					}
				}
				AND = {
					exists = betrothed
					betrothed = {
						has_graphical_india_region_trigger = yes
					}
				}
			}
			is_character_window_main_character = no
		}
	}

	##########################################

	# Western, high rank
	texture = {
		reference = "character_view/throneroom_west.dds"

		trigger = {
			exists = primary_title
			primary_title.tier >= tier_empire
			has_graphical_western_region_trigger = yes
		}
	}

	environment = {
		reference = "environment_cw_west"

		trigger = {
			exists = primary_title
			primary_title.tier >= tier_empire
			has_graphical_western_region_trigger = yes
			is_character_window_main_character = yes

		}
	}

	environment = {
		reference = "environment_cw_west_spouse"
		trigger = {
			OR = {
				AND = {
					exists = primary_spouse
					primary_spouse = {
						exists = primary_title
						primary_title.tier >= tier_empire
						has_graphical_western_region_trigger = yes
					}
				}
				AND = {
					exists = betrothed
					betrothed = {
						exists = primary_title
						primary_title.tier >= tier_empire
						has_graphical_western_region_trigger = yes
					}
				}
			}
			is_character_window_main_character = no
		}
	}

	##########################################

	# Western, regular
	texture = {
		reference = "character_view/west.dds"

		trigger = {
			has_graphical_western_region_trigger = yes
		}
	}

	texture = {
		reference = "character_view/west.dds"
	}

	environment = {
		reference = "environment_cw_west"

		trigger = {
			has_graphical_western_region_trigger = yes
			is_character_window_main_character = yes
		}
	}

	environment = {
		reference = "environment_cw_west_spouse"
		trigger = {
			OR = {
				AND = {
					exists = primary_spouse
					primary_spouse = {
						has_graphical_western_region_trigger = yes
					}
				}
				AND = {
					exists = betrothed
					betrothed = {
						has_graphical_western_region_trigger = yes
					}
				}
			}
			is_character_window_main_character = no
		}
	}

	##########################################

	# Fallback Environment
	environment = {
		reference = "environment_event_temple"
	}
}

character_location_exterior = {
	texture = {
		reference = "event_scenes/bp1_plains.dds"

		trigger = {
			NOT = {
				exists = liege
			}
			exists = location
			location = {
				terrain = plains
			}
		}
	}

	texture = {
		reference = "terrain_types/hills.dds"

		trigger = {
			NOT = {
				exists = liege
			}
			exists = location
			location = {
				terrain = hills
			}
		}
	}

	texture = {
		reference = "terrain_types/desert_mountains.dds"

		trigger = {
			NOT = {
				exists = liege
			}
			exists = location
			location = {
				terrain = desert_mountains
			}
		}
	}

	texture = {
		reference = "terrain_types/oasis.dds"

		trigger = {
			NOT = {
				exists = liege
			}
			exists = location
			location = {
				terrain = oasis
			}
		}
	}

	texture = {
		reference = "terrain_types/jungle.dds"

		trigger = {
			NOT = {
				exists = liege
			}
			exists = location
			location = {
				terrain = jungle
			}
		}
	}

	texture = {
		reference = "terrain_types/floodplains.dds"

		trigger = {
			NOT = {
				exists = liege
			}
			exists = location
			location = {
				terrain = floodplains
			}
		}
	}

	texture = {
		reference = "terrain_types/drylands.dds"

		trigger = {
			NOT = {
				exists = liege
			}
			exists = location
			location = {
				terrain = drylands
			}
		}
	}

	texture = {
		reference = "terrain_types/wetlands.dds"

		trigger = {
			NOT = {
				exists = liege
			}
			exists = location
			location = {
				terrain = wetlands
			}
		}
	}

	texture = {
		reference = "event_scenes/farms.dds"

		trigger = {
			NOT = {
				exists = liege
			}
			exists = location
			location = {
				terrain = farmlands
			}
		}
	}

	texture = {
		reference = "event_scenes/bp1_desert.dds"

		trigger = {
			NOT = {
				exists = liege
			}
			exists = location
			location = {
				terrain = desert
			}
		}
	}

	texture = {
		reference = "event_scenes/steppe.dds"

		trigger = {
			NOT = {
				exists = liege
			}
			exists = location
			location = {
				terrain = steppe
			}
		}
	}

	texture = {
		reference = "event_scenes/forest.dds"

		trigger = {
			NOT = {
				exists = liege
			}
			exists = location
			location = {
				terrain = forest
			}
		}
	}

	texture = {
		reference = "event_scenes/forest_pine.dds"

		trigger = {
			NOT = {
				exists = liege
			}
			exists = location
			location = {
				terrain = taiga
			}
		}
	}

	texture = {
		reference = "terrain_types/mountains.dds"

		trigger = {
			NOT = {
				exists = liege
			}
			exists = location
			location = {
				terrain = mountains
			}
		}
	}

	texture = {
		reference = "holding_types/tribe_arid.dds"

		trigger = {
			has_government = tribal_government
			exists = capital_province
			capital_province = {
				geographical_region = world_africa
			}
		}
	}

	texture = {
		reference = "event_scenes/steppe.dds"

		trigger = {
			has_government = tribal_government
			exists = capital_province
			capital_province = {
				geographical_region = world_steppe
			}
		}
	}

	texture = {
		reference = "event_scenes/desert.dds"

		trigger = {
			has_government = tribal_government
			exists = capital_province
			capital_province = {
				geographical_region = world_middle_east_arabia
			}
		}
	}

	texture = {
		reference = "event_scenes/market_east.dds"

		trigger = {
			has_government = tribal_government
			exists = capital_province
			capital_province = {
				geographical_region = world_tibet
			}
		}
	}

	texture = {
		reference = "event_scenes/market_east.dds"

		trigger = {
			exists = capital_province
			capital_province = {
				geographical_region = world_steppe
			}
		}
	}

	texture = {
		reference = "event_scenes/market_tribal.dds"

		trigger = {
			has_government = tribal_government
		}
	}

	texture = {
		reference = "event_scenes/market_west.dds"

		trigger = {
			has_graphical_western_region_trigger = yes
		}
	}

	texture = {
		reference = "event_scenes/market_east.dds"

		trigger = {
			OR = {
				has_graphical_india_region_trigger = yes
				has_graphical_mena_region_trigger = yes
				has_graphical_mediterranean_region_trigger = yes
			}
		}
	}
}

### Religious interior
religion_interior = {

	# texture = { # FP1 # Anbennar
		# trigger = { religion = religion:germanic_religion }
		# reference = "event_scenes/fp1_tribal_temple.dds"
	# }

	# environment = { # FP1 # Anbennar
		# trigger = { religion = religion:germanic_religion }
		# reference = "environment_event_fp1_tribal_temple"
	# }

	# texture = { # Anbennar
		# trigger = { religion = religion:christianity_religion }
		# reference = "event_scenes/church.dds"
	# }

	# environment = { # Anbennar
		# trigger = { religion = religion:christianity_religion }
		# reference = "environment_event_church"
	# }

	# texture = { # Anbennar
		# trigger = {
			# religion = religion:islam_religion
		# }

		# reference = "event_scenes/mosque.dds"
	# }


	# environment = { # Anbennar
		# reference = "environment_event_mosque"

		# trigger = {
			# religion = religion:islam_religion
		# }
	# }

	texture = {
		reference = "event_scenes/temple.dds"
	}

	environment = {
		reference = "environment_event_temple"

	}

	texture = {
		reference = "blank.dds"
	}

	# texture = {
	# 	reference = "gfx/interface/skins/norse/illustrations/council/bg_council_chaplain.dds"
		
	# 	trigger = {
	# 		AND = {
	# 			religion = religion:pagan
	# 			has_dlc_feature = the_northern_lords
	# 		}
	# 	}
	# }

	environment = {
		reference = "character_view_main"

		trigger = {
			is_character_window_main_character = yes
		}
	}

	environment = {
		reference = "character_view_spouse"
	}
}

### Religious holding image
religion_holding = {
	# texture = { # Anbennar
		# trigger = {
			# religion = religion:christianity_religion
		# }
		# reference = "holding_types/temple_christian.dds"
	# }

	# texture = { # Anbennar
		# trigger = {
			# religion = religion:islam_religion
		# }
		# reference = "holding_types/temple_islamic.dds"
	# }

	texture = {
		reference = "holding_types/temple_generic_grass.dds"
	}

	texture = {
		reference = "blank.dds"
	}
}

### Holding image based on title
title_holding = {
	texture = {
		trigger = {
			OR = {
				is_holy_order = yes
				is_mercenary_company = yes
			}
		}
		reference = "holding_types/castle_western.dds"
	}
	texture = {
		trigger = {
			title_illustration_save_province_temporary = yes
			NOT = { exists = scope:province }
		}
		reference = "interior/temple.dds"
	}
	texture = {
		trigger = {
			title_illustration_save_province_temporary = yes
			scope:province = {
				has_holding_type = castle_holding
				exists = culture
				culture = {
					has_graphical_india_culture_group_trigger = yes
				}
			}
		}
		reference = "holding_types/castle_india.dds"
	}
	texture = {
		trigger = {
			title_illustration_save_province_temporary = yes
			scope:province = {
				has_holding_type = castle_holding
				exists = culture
				culture = {
					has_graphical_mediterranean_culture_group_trigger = yes
				}
			}
		}
		reference = "holding_types/castle_mediterranean.dds"
	}
	texture = {
		trigger = {
			title_illustration_save_province_temporary = yes
			scope:province = {
				has_holding_type = castle_holding
				exists = culture
				culture = {
					has_graphical_mena_culture_group_trigger = yes
				}
			}
		}
		reference = "holding_types/castle_mena.dds"
	}
	texture = {
		trigger = {
			title_illustration_save_province_temporary = yes
			scope:province = {
				has_holding_type = castle_holding
				exists = culture
				culture = {
					has_graphical_western_culture_group_trigger = yes
				}
			}
		}
		reference = "holding_types/castle_western.dds"
	}
	texture = { # Fallback
		trigger = {
			title_illustration_save_province_temporary = yes
			scope:province = {
				has_holding_type = castle_holding
			}
		}
		reference = "holding_types/castle_western.dds"
	}
	texture = {
		trigger = {
			title_illustration_save_province_temporary = yes
			scope:province = {
				has_holding_type = tribal_holding
				OR = {
					terrain = desert
					terrain = desert_mountains
					terrain = oasis
					terrain = steppe
					terrain = drylands
					geographical_region = world_steppe
					geographical_region = world_middle_east_persia
					geographical_region = world_middle_east_jerusalem
					geographical_region = world_steppe
					geographical_region = world_middle_east_persia
					geographical_region = world_middle_east_jerusalem
					geographical_region = world_africa
					geographical_region = world_middle_east_arabia
				}
			}
		}
		reference = "holding_types/tribe_arid.dds"
	}
	texture = {
		trigger = {
			title_illustration_save_province_temporary = yes
			scope:province = {
				has_holding_type = tribal_holding
			}
		}
		reference = "holding_types/tribe_grass.dds"
	}
	texture = {
		trigger = {
			title_illustration_save_province_temporary = yes
			scope:province = {
				has_holding_type = city_holding
				exists = culture
				culture = {
					has_graphical_india_culture_group_trigger = yes
				}
			}
		}
		reference = "holding_types/city_india.dds"
	}
	texture = {
		trigger = {
			title_illustration_save_province_temporary = yes
			scope:province = {
				has_holding_type = city_holding
				exists = culture
				culture = {
					has_graphical_mediterranean_culture_group_trigger = yes
				}
			}
		}
		reference = "holding_types/city_mediterranean.dds"
	}
	texture = {
		trigger = {
			title_illustration_save_province_temporary = yes
			scope:province = {
				has_holding_type = city_holding
				exists = culture
				culture = {
					has_graphical_mena_culture_group_trigger = yes
				}
			}
		}
		reference = "holding_types/city_mena.dds"
	}
	texture = {
		trigger = {
			title_illustration_save_province_temporary = yes
			scope:province = {
				has_holding_type = city_holding
				exists = culture
				culture = {
					has_graphical_western_culture_group_trigger = yes
				}
			}
		}
		reference = "holding_types/city_western.dds"
	}
	texture = { # Fallback
		trigger = {
			title_illustration_save_province_temporary = yes
			scope:province = {
				has_holding_type = city_holding
			}
		}
		reference = "holding_types/city_western.dds"
	}
	# texture = { # Anbennar
		# trigger = {
			# title_illustration_save_province_temporary = yes
			# scope:province = {
				# has_holding_type = church_holding
				# faith.religion = religion:christianity_religion
			# }
		# }
		# reference = "holding_types/temple_christian.dds"
	# }
	# texture = { # Anbennar
		# trigger = {
			# title_illustration_save_province_temporary = yes
			# scope:province = {
				# has_holding_type = church_holding
				# faith.religion = { is_in_family = rf_pagan }
				# OR = {
					# faith.religion = religion:baltic_religion
					# faith.religion = religion:finno_ugric_religion
					# faith.religion = religion:germanic_religion
					# faith.religion = religion:paganism_religion
					# faith.religion = religion:slavic_religion
				# }
			# }
		# }
		# reference = "holding_types/temple_northern_pagan.dds"
	# }
	# texture = { # Anbennar
		# trigger = {
			# title_illustration_save_province_temporary = yes
			# scope:province = {
				# has_holding_type = church_holding
				# faith.religion = { is_in_family = rf_eastern }
			# }
		# }
		# reference = "holding_types/temple_india.dds"
	# }
	# texture = { # Anbennar
		# trigger = {
			# title_illustration_save_province_temporary = yes
			# scope:province = {
				# has_holding_type = church_holding
				# faith.religion = religion:islam_religion
			# }
		# }
		# reference = "holding_types/temple_islamic.dds"
	# }
	texture = {
		trigger = {
			title_illustration_save_province_temporary = yes
			scope:province = {
				has_holding_type = church_holding
				OR = {
					terrain = desert
					terrain = desert_mountains
					terrain = oasis
					terrain = steppe
					terrain = drylands
					geographical_region = world_steppe
					geographical_region = world_middle_east_persia
					geographical_region = world_middle_east_jerusalem
					geographical_region = world_steppe
					geographical_region = world_middle_east_persia
					geographical_region = world_middle_east_jerusalem
					geographical_region = world_africa
					geographical_region = world_middle_east_arabia
				}
			}
		}
		reference = "holding_types/temple_generic_arid.dds"
	}
	texture = { # Fallback
		trigger = {
			title_illustration_save_province_temporary = yes
			scope:province = {
				has_holding_type = church_holding
			}
		}
		reference = "holding_types/temple_generic_grass.dds"
	}

	### Baronies without holdings show their terrain type
	texture = {
		trigger = {
			title_illustration_save_province_temporary = yes
			scope:province = {
				terrain = desert
			}
		}
		reference = "terrain_types/desert.dds"
	}
	texture = {
		trigger = {
			title_illustration_save_province_temporary = yes
			scope:province = {
				terrain = desert_mountains
			}
		}
		reference = "terrain_types/desert_mountains.dds"
	}
	texture = {
		trigger = {
			title_illustration_save_province_temporary = yes
			scope:province = {
				terrain = drylands
			}
		}
		reference = "terrain_types/drylands.dds"
	}
	texture = {
		trigger = {
			title_illustration_save_province_temporary = yes
			scope:province = {
				terrain = farmlands
			}
		}
		reference = "terrain_types/farmlands.dds"
	}
	texture = {
		trigger = {
			title_illustration_save_province_temporary = yes
			scope:province = {
				terrain = floodplains
			}
		}
		reference = "terrain_types/floodplains.dds"
	}
	texture = {
		trigger = {
			title_illustration_save_province_temporary = yes
			scope:province = {
				terrain = forest
			}
		}
		reference = "terrain_types/forest.dds"
	}
	texture = {
		trigger = {
			title_illustration_save_province_temporary = yes
			scope:province = {
				terrain = hills
			}
		}
		reference = "terrain_types/hills.dds"
	}
	texture = {
	   trigger = {
			title_illustration_save_province_temporary = yes
			scope:province = {
				terrain = jungle
			}
		}
		reference = "terrain_types/jungle.dds"
	}
	texture = {
		trigger = {
			title_illustration_save_province_temporary = yes
			scope:province = {
				terrain = mountains
			}
		}
		reference = "terrain_types/mountains.dds"
	}
	texture = {
		trigger = {
			title_illustration_save_province_temporary = yes
			scope:province = {
				terrain = oasis
			}
		}
		reference = "terrain_types/oasis.dds"
	}
	texture = {
		trigger = {
			title_illustration_save_province_temporary = yes
			scope:province = {
				terrain = plains
			}
		}
		reference = "terrain_types/plains.dds"
	}
	texture = {
		trigger = {
			title_illustration_save_province_temporary = yes
			scope:province = {
				terrain = steppe
			}
		}
		reference = "terrain_types/steppe.dds"
	}
	texture = {
		trigger = {
			title_illustration_save_province_temporary = yes
			scope:province = {
				terrain = taiga
			}
		}
		reference = "terrain_types/taiga.dds"
	}
	texture = {
		trigger = {
			title_illustration_save_province_temporary = yes
			scope:province = {
				terrain = wetlands
			}
		}
		reference = "terrain_types/wetlands.dds"
	}
	# Ultimate fallback
	texture = {
		reference = "terrain_types/plains.dds"
	}
}

artifact_regional_pattern = {

	# India
	texture = {
		reference = "regional_patterns/mask_pattern_indian.dds"
		trigger = {
			has_graphical_india_culture_group_trigger = yes
		}
	}

	# Mena
	texture = {
		reference = "regional_patterns/mask_pattern_mena.dds"
		trigger = {
			has_graphical_mena_culture_group_trigger = yes
		}
	}

	# Mediterranean
	texture = {
		reference = "regional_patterns/mask_pattern_medi.dds"
		trigger = {
			has_graphical_mediterranean_culture_group_trigger = yes
		}
	}

	# Western
	texture = {
		reference = "regional_patterns/mask_pattern_western.dds"
		trigger = {
			has_graphical_western_culture_group_trigger = yes
		}
	}

	# Fallback
	texture = {
		reference = "regional_patterns/mask_pattern_western.dds"
	}
}

### Private location background for a character (mostly interior, but sometimes exterior for flavour)
# This intentionally tries to be different from the 'character_view_bg' because you might see them at the same time
character_private = {
	######################################
	# Dead
	texture = {
		reference = "event_scenes/temple.dds"
		trigger = {
			is_alive = no
		}
	}

	##########################################

	# Norse ruler
	texture = {
		# Just hangin' at the runestone & thinking of things
		reference = "event_scenes/fp1_runestone.dds"

		trigger = {
			exists = primary_title
			OR = {
				# Anbennar
				culture = { has_cultural_pillar = heritage_gerudian }
				# culture = culture:norse
				# religion = religion:germanic_religion
				has_graphical_scandinavia_region_trigger = yes
			}
		}
	}

	# Norse
	texture = {
		reference = "event_scenes/fp1_tribal_temple.dds"

		trigger = {
			OR = {
				# Anbennar
				culture = { has_cultural_pillar = heritage_gerudian }
				# culture = culture:norse
				# religion = religion:germanic_religion
				has_graphical_scandinavia_region_trigger = yes
			}
		}
	}

	##########################################

	# Tribal, landed
	texture = {
		# Todo [DB]: No real nice picture for a tribal landed character
		reference = "event_scenes/fp1_tribal_temple.dds"

		trigger = {
			exists = primary_title
			has_government = tribal_government
		}
	}

	# Tribal
	texture = {
		reference = "event_scenes/fp1_steward_study.dds"

		trigger = {
			OR = {
				AND = {
					exists = host
					host = {
						has_government = tribal_government
					}
				}
				AND = {
					exists = liege
					liege = {
						has_government = tribal_government
					}
				}
			}
		}
	}


	##########################################

	# Iberian, landed
	texture = {
		reference = "event_scenes/bp1_relaxing_room_mena.dds"

		trigger = {
			exists = primary_title
			has_graphical_iberia_region_trigger = yes
		}
	}

	# Iberian, regular
	texture = {
		reference = "event_scenes/sittingroom.dds"

		trigger = {
			has_graphical_iberia_region_trigger = yes
		}
	}

	############################################

	# Mediterranean, landed
	texture = {
		reference = "event_scenes/fp2_garden.dds"

		trigger = {
			exists = primary_title
			has_graphical_mediterranean_region_trigger = yes
		}
	}

	# Mediterranean
	texture = {
		reference = "event_scenes/study.dds"

		trigger = {
			has_graphical_mediterranean_region_trigger = yes
		}
	}

	##########################################

	# Eastern, landed
	texture = {
		reference = "event_scenes/fp2_corridor_day.dds"

		trigger = {
			exists = primary_title
			has_graphical_mena_region_trigger = yes
		}
	}

	##########################################

	# Eastern, regular
	texture = {
		reference = "event_scenes/bp1_courtyard_mena.dds"

		trigger = {
			has_graphical_mena_region_trigger = yes
		}
	}

	##########################################

	# India, high rank
	texture = {
		reference = "event_scenes/bp1_corridor_indian_day.dds"

		trigger = {
			exists = primary_title
			has_graphical_india_region_trigger = yes
		}
	}

	##########################################

	# India, regular
	texture = {
		reference = "event_scenes/bp1_courtyard_indian.dds"

		trigger = {
			has_graphical_india_region_trigger = yes
		}
	}

	##########################################

	# Western, high rank
	texture = {
		reference = "event_scenes/bp1_relaxing_room_western.dds"

		trigger = {
			exists = primary_title
			has_graphical_western_region_trigger = yes
		}
	}

	##########################################

	# Western, regular
	texture = {
		reference = "event_scenes/study.dds"

		trigger = {
			has_graphical_western_region_trigger = yes
		}
	}

	##########################################

	# Fallbacks
	texture = {
		reference = "interior/temple.dds"
	}
	environment = {
		reference = "environment_event_temple"
	}

}