k_reuyel = {
	1000.1.1 = { change_development_level = 8 }
	1017.1.1 = {
		holder = 23	#Jaher
	}
}

d_reuyel = {
	1000.1.1 = { change_development_level = 9 }
}

c_reuyel = {
	1000.1.1 = { change_development_level = 15 }
}

c_lencende = {
	1000.1.1 = { change_development_level = 10 }
}

c_kaproya_telen = {
	1000.1.1 = { change_development_level = 9 }
}