﻿
################################
# Almohads
################################
almohad_appearance_base_chance = 1

# titles_held_in_k_maghreb = {
	# every_sub_realm_county = {
		# limit = { kingdom = title:k_maghreb }
		# add = 1
	# }
# }

