197 = {

    # Misc
    culture = damerian
    religion = cult_of_the_dame
	holding = tribal_holding

    # History
}

200 = {

    # Misc
    culture = damerian
    religion = cult_of_the_dame
	holding = tribal_holding

    # History
}

694 = {

    # Misc
    culture = damerian
    religion = cult_of_the_dame
	holding = tribal_holding

    # History
}